Edward(Eddie) Cruz,Jr. Data Analysis Portfolio - R Coding Exercise
…
Perform Year Groupby to Identify Distinct Missing Years

miss_inf_mort_yrs = miss_inf_mort_rows %>%
  group_by(year) %>%
  count(infant_mortality)
miss_inf_mort_yrs

# A tibble: 23 × 3
# Groups:   year [23]
    year infant_mortality     n
   <int>            <dbl> <int>
 1  1960               NA    10
 2  1961               NA    17
 3  1962               NA    16
 4  1963               NA    16
 5  1964               NA    15
 6  1965               NA    14
 7  1966               NA    13
 8  1967               NA    11
 9  1968               NA    11
10  1969               NA     7
# ℹ 13 more rows
…
